{
  "images" : [
    {
      "idiom" : "universal",
      "filename" : "@1xRegister Referral Image.jpg",
      "scale" : "1x"
    },
    {
      "idiom" : "universal",
      "filename" : "@2xRegister Referral Image.jpg",
      "scale" : "2x"
    },
    {
      "idiom" : "universal",
      "filename" : "@3xRegister Referral Image.jpg",
      "scale" : "3x"
    }
  ],
  "info" : {
    "version" : 1,
    "author" : "xcode"
  }
}