{
  "shaktiID": "string",
  "walletID": "string",
  "firstName": "string",
  "lastName": "string",
  "middleName": "string",
  "fullName": "string",
  "dob": "yyyy-MM-dd",
  "referenceEmail": "string",
  "referenceMobile": "string",
  "address": {
    "country": "string",
    "countryCode": "string",
    "stateProvinceCode": "string",
    "city": "string",
    "address1": "string",
    "address2": "string",
    "zipCode": "string"
  },
  "primaryEmail": "string",
  "primaryMobile": "string",
  "secondaryEmail": "string",
  "secondaryMobile": "string",
  "relationshipStatus": "SINGLE",
  "relation": {
    "head": "string",
    "spouse": "string",
    "commonLawSpouse": "string",
    "son": "string",
    "daughter": "string",
    "brother": "string",
    "sister": "string",
    "niece": "string",
    "nephew": "string",
    "grandson": "string",
    "grandaughter": "string",
    "sonInLaw": "string",
    "daughterInLaw": "string",
    "aunt": "string",
    "uncle": "string",
    "father": "string",
    "mother": "string",
    "grandmother": "string",
    "grandfather": "string",
    "ggrandmother": "string",
    "ggrandfather": "string",
    "nextKin1": "string",
    "nextKin2": "string",
    "beneficiary": "string"
  },
  "education1": "string",
  "education2": "string",
  "deviceUDID": "string",
  "emailAlert": true,
  "occupation": "string",
  "fastTrack": true,
  "subscriptionId": "string",
  "paymentStatus": "INITIATED",
  "verificationStatus": "INITIATED",
  "verificationComments": "string",
  "kycStatus": "LOCKED"
}
