{
  "swagger" : "2.0",
  "info" : {
    "description" : "",
    "version" : "v1",
    "title" : "License service"
  },
  "host" : "licenseservice-stg.shakticoin.com",
  "basePath" : "/license-service/api/v1",
  "tags" : [ {
    "name" : "LicenseController",
    "description" : "License types & inventory details"
  }, {
    "name" : "NodeOperatorController",
    "description" : "License buyer interactions"
  }, {
    "name" : "Internal",
    "description" : "Internal API interaction"
  } ],
  "schemes" : [ "https" ],
  "security" : [ {
    "bearerAuth" : [ ]
  } ],
  "paths" : {
    "/licenses" : {
      "get" : {
        "tags" : [ "LicenseController" ],
        "summary" : "get all license types",
        "description" : "Get all license types",
        "parameters" : [ ],
        "responses" : {
          "200" : {
            "description" : "OK"
          },
          "401" : {
            "description" : "unauthorized"
          },
          "404" : {
            "description" : "License type not found"
          }
        }
      }
    },
    "/licenses/mining" : {
      "get" : {
        "tags" : [ "LicenseController" ],
        "summary" : "get all mining license types",
        "description" : "Get all mining license types <br/> <img src=\"https://drive.google.com/uc?id=1iZDxnC93DNuMl0xLoauOyEkphQhWbywJ\" /> <img src=\"https://drive.google.com/uc?id=1Bu2EVcMS5S8FSTm1ddhsDDtRdbxC4c8g\" />",
        "parameters" : [ ],
        "responses" : {
          "200" : {
            "description" : "OK"
          },
          "401" : {
            "description" : "unauthorized"
          },
          "404" : {
            "description" : "License type not found"
          }
        }
      }
    },
    "/licenses/inventory/{country}" : {
      "get" : {
        "tags" : [ "LicenseController" ],
        "summary" : "search license inventories based on region",
        "description" : "search license inventories based on region  <br/> <img src=\"https://drive.google.com/uc?id=1v6zmazQi-r9b7rtGc4eyod3RIcoHBmT9\" />",
        "parameters" : [ {
          "name" : "country",
          "in" : "path",
          "description" : "country to be searched",
          "required" : true,
          "type" : "string"
        }, {
          "name" : "province",
          "in" : "query",
          "description" : "province to be searched",
          "required" : false,
          "type" : "string"
        }, {
          "name" : "city",
          "in" : "query",
          "description" : "city to be searched",
          "required" : false,
          "type" : "string"
        } ],
        "responses" : {
          "200" : {
            "description" : "OK"
          },
          "401" : {
            "description" : "unauthorized"
          },
          "404" : {
            "description" : "License inventory not found"
          }
        }
      }
    },
    "/node-operator" : {
      "get" : {
        "tags" : [ "NodeOperatorController" ],
        "summary" : "get node operator",
        "description" : "Get license buyer details <br/> <img src=\"https://drive.google.com/uc?id=1m7yefRnii1rx61u-5JPjXcP3BS5L-bdb\" />",
        "parameters" : [ ],
        "responses" : {
          "200" : {
            "description" : "OK"
          },
          "401" : {
            "description" : "unauthorized"
          },
          "404" : {
            "description" : "Node Operator not found"
          }
        }
      },
      "patch" : {
        "tags" : [ "NodeOperatorController" ],
        "summary" : "update node operator",
        "description" : "update node operator",
        "parameters" : [ {
          "in" : "body",
          "name" : "body",
          "required" : true,
          "schema" : {
            "$ref" : "#/definitions/NodeOperatorUpdateModel"
          }
        } ],
        "responses" : {
          "200" : {
            "description" : "OK"
          },
          "401" : {
            "description" : "unauthorized"
          },
          "404" : {
            "description" : "Node Operator not found"
          }
        }
      }
    },
    "/node-operator/checkout/subscription" : {
      "post" : {
        "tags" : [ "NodeOperatorController" ],
        "summary" : "checkout subscription",
        "description" : "checkout subscription <br/> <img src=\"https://drive.google.com/uc?id=177ImtS4VHn1XbE1BLb21liUdhRpfl_eQ\" />",
        "parameters" : [ {
          "in" : "body",
          "name" : "body",
          "required" : true,
          "schema" : {
            "$ref" : "#/definitions/NodeOperatorModel"
          }
        } ],
        "responses" : {
          "200" : {
            "description" : "OK"
          }
        }
      }
    },
    "/node-operator/checkout/addition" : {
      "post" : {
        "tags" : [ "NodeOperatorController" ],
        "summary" : "checkout addition",
        "description" : "checkout addition <br/> <img src=\"https://drive.google.com/uc?id=1veStBKQQtLHGpJJQbQUWwBWaaMnuz806\" />",
        "parameters" : [ {
          "in" : "body",
          "name" : "body",
          "required" : true,
          "schema" : {
            "$ref" : "#/definitions/PlanCodeRequest"
          }
        } ],
        "responses" : {
          "200" : {
            "description" : "OK"
          }
        }
      }
    },
    "/node-operator/checkout/upgrade" : {
      "post" : {
        "tags" : [ "NodeOperatorController" ],
        "summary" : "checkout upgrade",
        "description" : "checkout upgrade <br/> <img src=\"https://drive.google.com/uc?id=1YPb70CZWOZBEA5wb92tbG_OlurWq3xak\" /> <img src=\"https://drive.google.com/uc?id=1ElRREqF7iyy03UhgRFMHGvrIe9eOvC4q\" />",
        "parameters" : [ {
          "in" : "body",
          "name" : "body",
          "required" : true,
          "schema" : {
            "$ref" : "#/definitions/CheckoutPlanRequest"
          }
        } ],
        "responses" : {
          "200" : {
            "description" : "OK"
          }
        }
      }
    },
    "/node-operator/checkout/downgrade" : {
      "post" : {
        "tags" : [ "NodeOperatorController" ],
        "summary" : "checkout downgrade",
        "description" : "checkout downgrade",
        "parameters" : [ {
          "in" : "body",
          "name" : "body",
          "required" : true,
          "schema" : {
            "$ref" : "#/definitions/CheckoutPlanRequest"
          }
        } ],
        "responses" : {
          "200" : {
            "description" : "OK"
          }
        }
      }
    },
    "/node-operator/cancellation" : {
      "post" : {
        "tags" : [ "NodeOperatorController" ],
        "summary" : "cancel subscription",
        "description" : "cancel subscription",
        "parameters" : [ {
          "in" : "body",
          "name" : "body",
          "required" : true,
          "schema" : {
            "$ref" : "#/definitions/SubscribedLicenseModel"
          }
        } ],
        "responses" : {
          "200" : {
            "description" : "OK"
          }
        }
      }
    },
    "/node-operator/webhook/addition" : {
      "post" : {
        "tags" : [ "Internal" ],
        "summary" : "add a new subscription to node operator",
        "description" : "add a new subscription to node operator",
        "parameters" : [ {
          "in" : "body",
          "name" : "body",
          "required" : true,
          "schema" : {
            "$ref" : "#/definitions/SubscribedLicenseModel"
          }
        } ],
        "responses" : {
          "200" : {
            "description" : "OK"
          }
        }
      }
    },
    "/node-operator/webhook/plan" : {
      "post" : {
        "tags" : [ "Internal" ],
        "summary" : "plan change in subscription",
        "description" : "plan change in subscription",
        "parameters" : [ {
          "in" : "body",
          "name" : "body",
          "required" : true,
          "schema" : {
            "$ref" : "#/definitions/SubscribedLicenseModel"
          }
        } ],
        "responses" : {
          "200" : {
            "description" : "OK"
          }
        }
      }
    }
  },
  "securityDefinitions" : {
    "bearerAuth" : {
      "type" : "apiKey",
      "name" : "Authorization",
      "in" : "header"
    }
  },
  "definitions" : {
    "NodeOperatorUpdateModel" : {
      "type" : "object",
      "properties" : {
        "nodeID" : {
          "type" : "string"
        },
        "walletID" : {
          "type" : "string"
        },
        "bizVaultID" : {
          "type" : "string"
        },
        "vanityID1" : {
          "type" : "string"
        },
        "vanityID2" : {
          "type" : "string"
        },
        "brandID" : {
          "type" : "string"
        },
        "email" : {
          "type" : "string"
        },
        "mobileNumber" : {
          "type" : "string"
        }
      }
    },
    "NodeOperatorModel" : {
      "type" : "object",
      "required" : [ "address", "planCode" ],
      "properties" : {
        "planCode" : {
          "type" : "string"
        },
        "address" : {
          "$ref" : "#/definitions/AddressModel"
        }
      }
    },
    "AddressModel" : {
      "type" : "object",
      "required" : [ "city", "country", "countryCode", "province", "street", "zipCode" ],
      "properties" : {
        "country" : {
          "type" : "string"
        },
        "countryCode" : {
          "type" : "string"
        },
        "province" : {
          "type" : "string"
        },
        "city" : {
          "type" : "string"
        },
        "street" : {
          "type" : "string"
        },
        "zipCode" : {
          "type" : "string"
        }
      }
    },
    "PlanCodeRequest" : {
      "type" : "object",
      "required" : [ "planCode" ],
      "properties" : {
        "planCode" : {
          "type" : "string"
        }
      }
    },
    "CheckoutPlanRequest" : {
      "type" : "object",
      "required" : [ "planCode", "subscriptionId" ],
      "properties" : {
        "planCode" : {
          "type" : "string"
        },
        "subscriptionId" : {
          "type" : "string"
        }
      }
    },
    "SubscribedLicenseModel" : {
      "type" : "object",
      "required" : [ "planCode", "subscriptionId" ],
      "properties" : {
        "planCode" : {
          "type" : "string"
        },
        "subscriptionId" : {
          "type" : "string"
        },
        "action" : {
          "type" : "string",
          "enum" : [ "INITIATED", "JOINED", "UPGRADED", "DOWNGRADED", "RENEWED", "CANCELLED", "EXPIRED" ]
        },
        "paymentStatus" : {
          "type" : "string",
          "enum" : [ "INITIATED", "SUCCESS", "FAILED" ]
        }
      }
    }
  }
}